Lab 3: Hip Hop Lyrics
…
white_men_over_30 <- hiphop |> 
  filter(sex == "Male", 
         ethnic == "white", 
         age > 30) |> 
  select(word, familiarity) |> 
  group_by(word) |> 
  summarize(familiarity = mean(familiarity))
white_men_over_30 |> 
  slice_min(familiarity)

# A tibble: 25 × 2
   word              familiarity
   <chr>                   <dbl>
 1 ay yo trip                  1
 2 beezy                       1
 3 break someone out           1
 4 catch the vapors            1
 5 crossroads                  1
 6 crump                       1
 7 dap                         1
 8 dollar cab                  1
 9 domino                      1
10 duckets                     1
# … with 15 more rows
…
