Lab 5
…
Lab 5

    Author

             Zarina Yunis 

library(tidyverse)
library(here)
library(forcats)

surveys <- read_csv(here::here("supporting_artifacts", "surveys.csv"))
surveys

# A tibble: 30,463 × 15
   record…¹ month   day  year plot_id speci…² sex   hindf…³ weight date  day_o…⁴
      <dbl> <dbl> <dbl> <dbl>   <dbl> <chr>   <chr>   <dbl>  <dbl> <chr> <chr>  
 1       63     8    19  1977       3 DM      M          35     40 8/19… Fri    
 2       64     8    19  1977       7 DM      M          37     48 8/19… Fri    
 3       65     8    19  1977       4 DM      F          34     29 8/19… Fri    
 4       66     8    19  1977       4 DM      F          35     46 8/19… Fri    
 5       67     8    19  1977       7 DM      M          35     36 8/19… Fri    
 6       68     8    19  1977       8 DO      F          32     52 8/19… Fri    
 7       69     8    19  1977       2 PF      M          15      8 8/19… Fri    
 8       71     8    19  1977       7 DM      F          36     35 8/19… Fri    
 9       74     8    19  1977       8 PF      M          12      7 8/19… Fri    
10       75     8    19  1977       8 DM      F          32     22 8/19… Fri    
# … with 30,453 more rows, 4 more variables: plot_type <chr>, genus <chr>,
#   species <chr>, taxa <chr>, and abbreviated variable names ¹​record_id,
#   ²​species_id, ³​hindfoot_length, ⁴​day_of_week

surveys |> 
  mutate(species = fct_reorder(species, weight, .desc = TRUE))

# A tibble: 30,463 × 15
   record…¹ month   day  year plot_id speci…² sex   hindf…³ weight date  day_o…⁴
      <dbl> <dbl> <dbl> <dbl>   <dbl> <chr>   <chr>   <dbl>  <dbl> <chr> <chr>  
 1       63     8    19  1977       3 DM      M          35     40 8/19… Fri    
 2       64     8    19  1977       7 DM      M          37     48 8/19… Fri    
 3       65     8    19  1977       4 DM      F          34     29 8/19… Fri    
 4       66     8    19  1977       4 DM      F          35     46 8/19… Fri    
 5       67     8    19  1977       7 DM      M          35     36 8/19… Fri    
 6       68     8    19  1977       8 DO      F          32     52 8/19… Fri    
 7       69     8    19  1977       2 PF      M          15      8 8/19… Fri    
 8       71     8    19  1977       7 DM      F          36     35 8/19… Fri    
 9       74     8    19  1977       8 PF      M          12      7 8/19… Fri    
10       75     8    19  1977       8 DM      F          32     22 8/19… Fri    
# … with 30,453 more rows, 4 more variables: plot_type <chr>, genus <chr>,
#   species <fct>, taxa <chr>, and abbreviated variable names ¹​record_id,
#   ²​species_id, ³​hindfoot_length, ⁴​day_of_week
…
